70;1;2015-02-19;4;La carne migliore che ho mangiato a Bolzano. Interessante anche l'arredamento, i nomi dei piatti e l'atmosfera, tutto ispirato al vecchio west. Unica pecca: negli orari di punta e' pienissimo e bisogna aspettare un po' per ricevere i piatti ordinati, ma ne vale la pena!;Grazie per la recensione gentile utente!;2;2015-02-23 14:56:09.944+01
69;1;2015-05-04;4;Ristorante che fa parte di una catena, ma con questo non significa fast food, la carne e' sempre ben cotta e le salse accompagnano il tutto divinamente, la grigliata mista da due persone e' uno spettacolo, in due si fa fatica a finirla, i prezzi sono nella media, forse unica pecca sono i tempi di attesa leggermente lunghi. Consigliato!;Grazie per la recensione gentile utente!;4;2015-05-07 16:23:09.944+01
68;2;2014-11-12;3;Ottime tutte le paste fatte in casa, in particolare la cacio e pepe e la salsiccia e lagrein. Eccellente il servizio, originale ed estremamente accogliente l'ambiente con ottima musica. Prezzi molto bassi rispetto alla media di Bolzano, ma anche in confronto alle maggiori citta' del Nord Italia. Consiglio!;Grazie per la recensione gentile utente!;5;2014-11-15 11:45:09.944+01
67;2;2015-03-17;5;Gustoso, originale e conveniente! Abbiamo appena finito di mangiare delle paste eccellenti: una pasta e fagioli cremosa e gustosissima e una cacio e pepe altrettanto cremosa e saporita. Locale molto originale con musica di qualita'. Prezzi molto bassi.;;;2015-03-17 18:59:09.944+01
66;2;2015-08-22;4;Fantastico se vi piace la musica di alto livello, anni '70 soprattutto e la cucina fatta secondo rigorose regole e rigoroso rispetto della tradizione, con pasta fatta in casa. Prezzi molto buoni, servizio simpatico e competente.;;;2015-08-22 22:31:09.944+01
67;3;2016-02-07;4;Locale situato in pieno centro a Bolzano. Ravioli con farina di castagne la cui bonta' dimentichero' difficilmente e un baccala' alla bolzanina buonissimo in un ambiente che alterna antichi locali ad ambienti modernamente arredati. Prezzi nella media locale.;;;2016-02-07 10:38:09.944+01
70;3;2015-09-28;5;Ristorante tipico in centro citta'. Ci siamo fermati piu' volte a mangiare in questo ristorante e devo dire che non siamo mai rimasti delusi! Il menu' e' molto vario ed adatto a tutti i gusti, i prezzi non sono per nulla eccessivi. Piatti buoni e ben curati. Servizio veloce ed impeccabile.;Grazie per la recensione gentile utente!;3;2015-09-30 23:12:09.944+01
69;4;2014-07-04;4;Luogo molto suggestivo, all'interno di un vecchio castello che domina la citta' di Bolzano. Locale di classe, portate fantasiose e servizio impeccabile. Il prezzo che ne deriva e' allineato al tipo di locale, ma vale sicuramente la pena, almeno una volta, di andarci.;;;2014-07-04 19:25:09.944+01
65;4;2015-09-21;5;Un'estasi per il palato. Cucina raffinatissima, sofisticata ma non troppo, materia prima d'eccellenza. Personale gentile, attento e molto preparato. Piatti artistici e spettacolari, presentati in modo professionale. Porzioni di giusta quantita'. Un'esperienza sublime per il palato.;Grazie per la recensione gentile utente!;5;2015-09-25 00:51:09.944+01
64;5;2016-01-30;4;Per noi il ristorante migliore di Bolzano. Mangiare ottimo, qualita' ottima. I vini perfetti. Il sevizio e' molto accurato il personale molto attento. Il rapporto qualita' prezzo e' tutto sommato ok. E' cosi' importante avere nel centro di Bolzano un locale cosi' speciale e particolare. Perfetto!!!;Grazie per la recensione gentile utente!;4;2016-02-04 16:19:09.944+01
68;5;2015-11-13;4;A cena con colleghi, torno dopo anni al Kaiserkron. Ottimo sotto tutti gli aspetti. Spettacolare il polipo alla brace cosi' come il controfiletto. Materie prime di ottima qualita', piatti preparati in modo semplice e gustoso. Servizio top, complimenti.;;;2015-11-13 23:39:09.944+01
65;6;2014-08-29;5;Sono stato con la mia compagna per una cena romantica al Laurin. Fin dall'inizio ci siamo sentiti coccolati e per tutta la cena il personale e' stato gentilissimo. Una tartare di manzo del Renon favolosa, primi piatti ottimi, carta dei vini molto ricca. Esperienza sicuramente da ripetere!;Grazie per la recensione gentile utente!;4;2014-08-30 10:15:09.944+01
67;6;2015-12-19;3;A differenza di molti ristoranti di media qualita', il ristorante del Laurin si distingue per lo stile asburgico e la classe che ricorda atmosfere mitteleuropee. Se a questo si aggiunge una cucina ottima ed un servizio impeccabile credo che non si possa chiedere di piu'.;Grazie per la recensione gentile utente!;1;2015-12-23 17:29:09.944+01
63;6;2015-05-20;3;L'hotel/ristorante e' situato proprio in pieno centro. Noi abbiamo passato una tranquilla serata degustando, all'aperto, tutta una serie di ottimi aperitivi. Personale molto professionale. Forse un po' alti i prezzi.;Grazie per la recensione gentile utente!;5;2015-05-22 19:00:09.944+01
23;7;2016-04-19;4;Ottimo cibo, servizio superveloce. Prezzo giusto. Il locale si presenta con lo stile streetfood, le tavole sono tutte da gruppi, privacy un po' a rischio, ma se siete fortunati da mangiare nelle vecchie botti da vino reinventate allora tutto cambia. Consigliato!;;;2016-04-19 14:14:09.944+01
32;8;2016-09-14;4;Consiglio vivamente a tutti quanti se passate per bolzano di fermarvi! Tartine favolose, bruschette che solo a guardarle ti viene voglia di ordinarle, buon vino della casa, le tartine sono self-service, altre bevande le preparano i ragazzi, molto professionali ma anche molto simpatici e spiritosi!;Grazie per la recensione gentile utente!;3;2016-09-16 00:42:09.944+01
64;9;2015-08-11;4;In pieno centro a Bolzano abbiamo travato questo ristorante che e' risultato essere veramente buono. Ottima la cucina tipica altoatesina, buona la carta dei vini e dei dolci squisiti: vi consiglio la mousse di castagne. Il prezzo non e' propriamente economico ma vale la pena.;;;2015-08-11 18:52:09.944+01
70;9;2016-03-01;3;Onestamente mi aspettavo molto di piu' da questo ristorante. Bella la location e personale molto gentile e paziente. Per quanto riguarda i piatti invece, potrebbero osare un po di piu'. Abbiamo provato un antipasto, due primi e un secondo, ma nessuno ci ha fatto gridare al miracolo. Prezzi nella media.;Grazie per la recensione gentile utente!;3;2016-03-06 06:58:09.944+01
58;10;2015-07-04;5;L'accoglienza e' calorosa ed il personale cortese, il servizio e' rapido e le porzioni sono abbondanti! Il cibo e' ottimo ed il rapporto qualita' prezzo e' super! Ogni volta che passiamo per bolzano questa e' una delle nostre tappe... Vivamente consigliato!;Grazie per la recensione gentile utente!;4;2015-07-08 15:49:09.944+01
65;10;2014-09-02;4;Trattoria rustica dal servizio abbastanza veloce. Le porzioni sono state sufficientemente abbondanti. Buona la scelta delle birre. Molto buono il dessert castagne, zucca, cachi.;Grazie per la recensione gentile utente!;2;2014-09-03 17:54:09.944+01
60;11;2015-10-09;4;Consigliato da amici ci sono andata piu' volte per il giropizza, bello il locale, buona la pizza e prezzi molto contenuti. Vivamente consigliato per una bella serata tra amici!;Grazie per la recensione gentile utente!;5;2015-10-13 15:37:09.944+01
59;11;2016-05-13;3;"Locale consigliato per un pasto giovane, veloce ed economico. Locale in tipicita' giovanile personale cordiale e veloce servizio celere pizza con il sistema del giro pizza prezzi economici. La mia signora e' rimasta molto soddisfatta della ""hicken Salad"" e la pizza era buona..";Grazie per la recensione gentile utente!;1;2016-05-16 09:57:09.944+01
58;12;2016-06-06;5;Una garanzia! Ormai una volta al mese e' tappa d'obbligo! Buon sushi, servizio veloce, bello il locale. E' sempre un piacere ritornare in questo ristorante. Consigliatissimo!;;;2016-06-06 22:14:09.944+01
57;13;2015-10-01;5;Ristorante bellissimo e romantico... Personale gentilissimo e cordiale! Tanta scelta nel menu' e di prodotti tipici. Ho mangiato splendidamente e ci torneremo sicuramente, davvero complimenti! A fine cena ci sono stati offerti cioccolatini e due grappe!;Grazie per la recensione gentile utente!;2;2015-10-03 08:51:09.944+01
60;13;2016-03-28;4;Cena all'aperto nelle belle vie del centro storico, con servizio preciso e cordiale. La cucina e' del territorio con qualche spunto innovativo. Il risultato e' piacevole senza particolari picchi gastronomici, comunque proporzionato al prezzo non elevato.;Grazie per la recensione gentile utente!;5;2016-03-29 17:05:09.944+01
56;13;2015-10-19;4;Cibo buono, piatti tipici locali, buon vino. Personale efficiente , gentilissimo e molto disponibile. Ambiente famigliare. Posti tra i tavoli abbastanza larghi. Prezzi molto moderati. Consiglio!;Grazie per la recensione gentile utente!;5;2015-10-23 16:35:09.944+01
55;14;2016-07-16;5;Passeggiando per il centro siamo stati ispirati dal menu' e ci siamo fermati per il pranzo. Abbiamo preso antipasto, bis di primi e dolce. Tutto veramente buono, quantita' giuste e prezzi ottimi. Ambiente tranquillo e molto carino. Vivamente consigliato!;;;2016-07-16 13:45:09.944+01
59;14;2015-09-03;3;Nulla di particolare da dire su questo locale che si presenta come un classico ristorante italiano. Buona accoglienza, locale arredato con una certa cura anche se datato. Piatti tradizionali che vedono nella pasta fresca prodotti di fianco al locale il piatto forte. Discreta scelta dei vini.;Grazie per la recensione gentile utente!;3;2015-09-05 16:23:09.944+01
60;15;2016-04-12;5;I piatti proposti, dall'antipasto al dolce, appaiono molto curati e sono altrettanto gustosi. Tutti buonissimi ed abbondanti, c'e' solo l'imbarazzo della scelta! Il personale e' davvero cortese e disponibile. Locale ben arredato ed accogliente. Consigliatissimo!;Grazie per la recensione gentile utente!;1;2016-04-13 01:34:09.944+01
54;15;2015-08-29;4;Il ristorante e' caratteristico e propone la cucina tipica del trentino. Ha diverse proposte nel menu', alcune specifiche della stagione, altre fisse. Le porzioni sono davvero abbondanti e buone.;;;2015-08-29 22:25:09.944+01
58;16;2016-01-28;4;Il locale da fuori sembra niente di che, ma poi all'intero e' carino e ben strutturato con un personale cordiale. Il cibo era ottimo ma un po' caro. Ci siamo trovati comunque bene. Da provare!;Grazie per la recensione gentile utente!;4;2016-01-31 13:03:09.944+01
57;17;2015-09-08;2;Il ristorante in se sarebbe anche carino, ma le tappezzerie di sedie e panche sarebbero da cambiare. Forse abbiamo trovato la serata sbagliata, ma ci hanno messo un sacco per portarci i menu' e farci ordinare e il cibo era discreto ma non eccezionale.;Grazie per la recensione gentile utente!;2;2015-09-10 02:49:09.944+01
53;17;2014-12-05;3;Abbiamo ordinato della semplice pizza, purtroppo la base era eccessivamente sottile e il formato ridotto, per il resto tutto bene. Personale gentile, prezzi accessibili, locale ordinato e pulito. Tutto sommato, nella media.;Grazie per la recensione gentile utente!;4;2014-12-07 12:17:09.944+01
60;18;2015-08-02;5;Un brasato commovente! Non ho mai mangiato niente di cosi buono: tenero, saporito equilibrato. Accompagnato da cappuccio rosso e polentina di storo! Una vera favola! Servizio molto cordiale, consigliatissimo!;Grazie per la recensione gentile utente!;5;2015-08-03 19:02:09.944+01
52;18;2014-10-16;3;Il ristoratore e il personale sono molto gentili. Cucina ottima ma molto scarsa! Un piatto immenso con 4 canederli al centro. Tutta scenografia! Io non sopporto vedere grandi piatti con poca sostanza. Nella media.;Grazie per la recensione gentile utente!;5;2014-10-20 16:02:09.944+01
58;19;2016-04-02;4;Situato in zona commerciale, e' molto adatto a chi vuole mangiare bene senza spendere troppo, velocemente, per pranzi/cene di affari e/o fra colleghi, clienti, in un ambiente moderno ma non freddo. Cucina e servizio curati e gradevoli. Una buona esperienza, consigliabile.;;;2016-04-02 20:51:09.944+01
51;19;2015-12-10;4;Locale molto accogliente che rasenta il raffinato. Luminoso, pulito, spazioso. Servizio impeccabile e personale preparato e cortese. Pizza senza glutine davvero molto buona. Un ottimo approdo per celiaci e non in quel di Trento.;Grazie per la recensione gentile utente!;2;2015-12-14 15:33:09.944+01
57;20;2015-11-20;4;Pizza ottima, grandi dimensioni. Locale rinnovato molto moderno e curato, personale molto professionale e gentile. Noi abbiamo optato per la pizza, di grandi dimensioni e di ottima qualita'! Consigliato per coppie!;Grazie per la recensione gentile utente!;3;2015-11-22 15:05:09.944+01
50;21;2016-01-23;5;Qualita' ai massimi livelli, cena con menu' degustazione da sogno! Meravigliosa la cucina a vista, cosi' da poter osservare questi maestri della cucina all'opera. Il tutto in un clima di grande simpatia e cordialita'. Apprezzatissima anche la carta dei vini. Soldi spesi davvero bene.;Grazie per la recensione gentile utente!;2;2016-01-24 11:47:09.944+01
49;21;2016-06-14;5;Ci siamo stati con amici a cena ed e' stata una magnifica esperienza. Sono pochi i locali che ho frequentato ai quali ho dato il massimo del punteggio. Abbiamo preso il menu' degustazione. Tutto perfetto: personale di sala, qualita' del cibo, presentazione dei piatti, abbinamenti, cantina. Ci torneremo sicuramente.;Grazie per la recensione gentile utente!;4;2016-06-15 01:06:09.944+01
57;21;2016-09-15;4;Altissima qualita' e servizio molto buono. Casa Perbellini a San Zeno e' sicuramente sinonimo di altissima qualita'. Vi ho pranzato recentemente e la cortesia, la gentilezza e la qualita' del cibo sono stati all'altezza delle aspettative. Bravi davvero.;;;2016-09-15 19:52:09.944+01
53;22;2015-10-12;5;Voto 10 e Lode sia per il cibo, sia per la cortesia e la passione per la cucina che il proprietario e' riuscito a trasmetterci. Ottimo rapporto qualita' prezzo. Ci ritorneremo, complimenti!;;;2015-10-12 13:16:09.944+01
9;22;2016-02-22;4;Sono stato a Verona per lavoro e visualizzando ristoranti che sono attenti al problema della celiachia ho trovato questo. Era tutto molto buono il linea con le nostre aspettative. Se torniamo a Verona potremmo tornare a trovare questo locale.;;;2016-02-22 20:34:09.944+01
53;22;2016-08-09;4;Siamo stati qui qualche mese fa e il posto ci era piaciuto tanto. L'esperienza si e' ripetuta, locale davvero come sempre fantastico, cibo ottimo e servizio davvero spettacolare. Consigliatissimo!;Grazie per la recensione gentile utente!;5;2016-08-11 16:30:09.944+01
57;23;2016-03-23;5;Non conoscevo questo locale, ma una volta scoperto sara' sicuramente oggetto di ritorno. Affettati e carne eccezionali, vini altrettanti, quantita' importanti: peccato aver mangiato a tal punto (antipasto e grigliata), da non essere arrivati al dolce! Da tornare anche per i primi!;Grazie per la recensione gentile utente!;1;2016-03-24 23:44:09.944+01
51;24;2015-09-15;4;Porzioni davvero enormi ma deliziose, servizio gentilissimo, ambiente strano ma accogliente, tagliatelle fatte in casa , il tiramisu' non mi ha conquistata. Comunque tutto ottimo.;Grazie per la recensione gentile utente!;4;2015-09-20 13:08:09.944+01
21;24;2014-10-18;5;Pranzo buonissimo e a buon prezzo. Piccola Location ma molto carina. Il personale ti accoglie divinamente e ti fa sentire come a casa. Insomma, posto ideale per pranzare bene in centro Verona.;Grazie per la recensione gentile utente!;4;2014-10-19 23:00:09.944+01
59;25;2015-07-09;5;L'atmosfera calda, il cibo buonissimo e il vino perfetto... Ecco come posso descrivere la nostra serata in questo ristorante. Il pane appena uscito dal forno, formaggio con il balsamico, salumi del Veronese, vino Valpolicella, pesce fresco e carne tenera. Tutto era perfetto! Torneremo!;;;2015-07-09 17:56:09.944+01
32;25;2016-03-21;4;Ambiente raffinato, cucina di alta qualita', servizio cortese, rapporto qualita'/prezzo buono. Assolutamente da consigliare. Ci torneremo con piu' calma perche' non abbiamo potuto assaggiare i bei dessert che vedevamo servire ai tavoli.;;;2016-03-21 21:40:09.944+01
48;26;2016-01-26;5;In un viaggio di lavoro un'ottima parentesi gastronomica. Non per la prima volta ci facciamo deliziare dall'ottimo pesce crudo per antipasto e di primo tagliolini ai frutti di mare o al nero di seppia. Tutto squisito e fresco. Il prezzo con il bere ovviamente non basso ma normale per la qualita'.;;;2016-01-26 12:52:09.944+01
55;27;2015-12-13;4;Ottima cena di compleanno in famiglia. Servizio impeccabile e rapido nonostante il ristorante fosse pieno. Tutto cucinato bene e con sapori ben bilanciati. Consiglio un pranzo o cena qui. Magari meglio prenotare per il weekend.;Grazie per la recensione gentile utente!;1;2015-12-14 18:44:09.944+01
47;27;2016-07-09;4;Da fuori non entreresti mai invece dentro e' una piacevole sorpresa. Locale spazioso ed elegante. Un ampia cantina dei vini. Primi di pasta fresca fatta in casa io ho provato le fettuccine con le code di gambero deliziose. Dolci molti e squisiti. Conto un po' caro ma vale la pena.;Grazie per la recensione gentile utente!;4;2016-07-13 17:02:09.944+01
57;28;2015-10-07;5;Sono stato a pranzo in questo bel ristorante dopo alcuni anni, devo dire che ho trovato una tale cura e professionalita' sia nell'impiattamento ma sopratutto nella qualita' delle proposte culinarie da rimanerne estasiato. In pratica e' stato un viaggio sensoriale. Decisamente ottimo!;;;2015-10-07 21:45:09.944+01
51;28;2016-04-19;5;Un posto davvero interessante nel panorama culinario non solo veronese. Ottima cucina, personale decisamente professionale e disponibile e arredamento molto curato. Carta dei vini impressionante e menu' degustazione ben strutturato. Vale decisamente la pena fare una tappa se siete in zona.;;;2016-04-19 21:23:09.944+01
44;28;2015-09-26;4;Ci siamo recati tra colleghi in questo ristorante a pranzo. Ho trovato tutto squisito, le preparazioni molto ben equilibrate. Davvero un'esperienza unica per il palato! Ho ascoltato un consiglio di amici ed ho fatto proprio bene! Servizio perfetto, solo il conto un po' salato.;Grazie per la recensione gentile utente!;4;2015-09-28 16:01:09.944+01
67;29;2016-10-14;5;Sono stata a cena ieri sera con il mio compagno, e' la seconda volta che torno a Verona e il Cenacolo e' una tappa obbligatoria! Abbiamo mangiato due menu' degustazione, tutto ottimo! Ci tornero' sicuramente! Rapporto qualita' prezzo davvero ottimo.;Grazie per la recensione gentile utente!;2;2016-10-18 23:55:09.944+01
41;29;2014-12-27;4;Vivamente consigliato. Ottima cucina locale con un accompagnamento di amarene niente male! Perfetta per una cena in coppia o in compagnia, menu' abbastanza vario e cibo di ottima qualita'.;;;2014-12-27 13:16:09.944+01
38;30;2015-12-01;5;Siamo ad altissimi livelli per la carne e non solo. Servizio ottimo, personale gentilissimo e atmosfera in linea con tutto il resto. Prezzo in sintonia con la qualita', veramente eccelsa, sia per le materie prime che per il modo di cucinarle e servirle. Titolo d'eccellenza piu' che meritato!;;;2015-12-01 22:46:09.944+01
70;30;2016-03-18;4;Pranzato con famiglia e amici in questo ristorante a due passi dall'arena di Verona. Ambiente caratteristico, cibo ottimo (specializzati nella carne.... ma si intuisce dal nome...) camerieri ai tavoli gentili e simpatici. Prezzo in linea con la qualita' del cibo.;Grazie per la recensione gentile utente!;4;2016-03-19 02:02:09.944+01
48;30;2016-06-02;5;Locale molto carino e accogliente adiacente alla magica cornice dell'Arena. Il personale e' gentilissimo. Abbiamo preso due primi, entrambi squisiti, e dei filetti all'amarone, accompagnati da un buon vino. Abbiamo concluso con una mousse al cioccolato ottima. Lo consiglio a tutti!;;;2016-06-02 12:38:09.944+01
45;31;2016-07-15;5;Sono stata a cena con un'amica e ho avuto un'ottima impressione sin dal primo momento. Ho delle allergie alimentari ed il personale e' stato molto attento nel consigliarmi cosa ordinare. Pesce freschisssimo e ben presentato appagando sia la vista che il palato. Da ritornare sicuramente!;;;2016-07-15 12:23:09.944+01
41;31;2016-08-19;4;Sono stata a cena nel mese di agosto, la location e' bellissima, romantica, curata, elegante, perfetta per una cena di coppia. Il cibo e' delizioso e il personale attento ma non asfissiante. Qualita' prezzo corretta per i sopraelencati motivi (in due con due antipasti due primi due dolci e vino circa 120 euro).;Grazie per la recensione gentile utente!;2;2016-08-22 12:22:09.944+01
31;32;2015-03-17;4;Il ristorante e' situato all'ultimo piano di un palazzo su una terrazza all'aperto e la vista e' veramente bella. Abbasta intimo, lo consiglio per una cena di coppia. Il cibo molto buono e ricercato. Servizio ottimo. Conto leggermente salato anche se rispecchia in pieno lo stile di questa tipologia di ristoranti.;Grazie per la recensione gentile utente!;3;2015-03-20 12:16:09.944+01
30;32;2016-01-24;5;Un ristorante davvero di alto livello a Rimini, siamo capitati quasi per caso in questo ottimo ristorante e appena entri capisci subito che tutto e' ben organizzato, cura nei minimi particolari, piatti eccellenti e combinazioni particolari ma azzeccate! Complimenti!;Grazie per la recensione gentile utente!;2;2016-01-25 18:12:09.944+01
68;33;2016-05-20;5;Siamo stati di passaggio nella zona di Gabicce Mare e ci siamo fermati a pranzo in questo ristorante. E' stata davvero un'ottima scelta. Abbiamo mangiato molto bene (ottimo il fritto!), il figlio della titolare e' una persona gentilissima, ambiente gradevole e prezzo giusto. Da consigliare!;;;2016-05-20 19:55:09.944+01
30;33;2015-08-12;5;Siamo stati qui dopo una passeggiata domenicale e nonostante il locale tutto prenotato ci hanno trovato un tavolo, personale molto gentile e disponibile. Ci siamo trovati molto bene, abbiamo pranzato molto bene a base di pesce fresco ad un prezzo adeguato. Davvero complimenti alla gestione!;;;2015-08-12 13:29:09.944+01
29;33;2014-11-07;4;Abbiamo cenato qui qualche sera fa e devo dire che siamo rimasti molto soddisfatti. I piatti sono molto buoni e curati, il personale e' gentile e il servizio molto rapido e efficace. Vi consiglio di provare l'antipasto di mare davvero buono e ricco e anche il risotto per due molto buono.;Grazie per la recensione gentile utente!;5;2014-11-11 15:11:09.944+01
4;34;2016-02-27;5;Da romagnolo di origini, sono abbastanza esigente quando si parla di piada. Beh, questi ragazzi sono riusciti a conquistarmi. Fantastico l'impasto e altrettanto buona la farcitura. Davvero consigliatissimo!;Grazie per la recensione gentile utente!;1;2016-03-03 17:26:09.944+01
68;34;2015-08-11;4;Quando ti mancano ancora 3 ore di auto per tornare a casa una sosta saziante e' d'obbligo! Piade, cassoni, rotoli, tutto ben farcito e con proposte gustose. Che bello vedere veri artigiani all'opera! Personale super cordiale e ambiente molto informale e famigliare. Consigliato!;Grazie per la recensione gentile utente!;5;2015-08-12 01:08:09.944+01
30;35;2016-08-27;5;Un ultimo pranzo di fine estate a lunarossa ormai e' una chicca di cui non voglio privarmi. Come al solito ci siamo fatti consigliare dal proprietario, gentilissimo e molto a modo, abbiamo mangiato benissimo. Dagli antipasti al dolce tutto perfetto. Ciao ragazzi grazie e al prossimo anno!;;;2016-08-27 13:46:09.944+01
28;35;2015-08-14;3;In una sera di meta' agosto, ci siamo recati a cenare in questo delizioso ristorantino sulla spiaggia di Rimini. Il personale cortese ed educato, ci ha consigliato delle pietanze piu' che squisite. Anche il vino consigliato dal cameriere e' stato all'altezza delle aspettative. Una cena coi fiocchi!;;;2015-08-14 23:04:09.944+01
29;36;2016-08-15;3;Locale caratteristico personale simpatico e cortese, cibo ottimo, le pizze sono squisite e la varieta' di birre apprezzabile! L'ambiente e' accogliente, musica dal vivo e atmosfera piacevole, e' adatto a giovani, famiglie e meno giovani che vogliono passare una piacevole serata.;Grazie per la recensione gentile utente!;3;2016-08-16 11:45:09.944+01
69;36;2015-09-09;4;Come ogni anno che vengo a Rimini per la fiera, c'e' sempre una puntata in questo favoloso locale dove ci siamo sempre trovati bene. Sempre complimenti ed alla prossima!;Grazie per la recensione gentile utente!;4;2015-09-11 14:23:09.944+01
65;36;2016-02-24;4;Sono stato qui di mercoledi, divertentissima serata country, locale giovanile, ma adatto a gente di ogni eta'. Ottima posizione in una traversa del lungomare. Ottimi piatti e abbondanti. Consigliato.;Grazie per la recensione gentile utente!;3;2016-02-25 16:56:09.944+01
46;37;2015-10-08;5;Locale che all'apparenza non ispirerebbe chissa' cosa. In realta' e' stato una fantastica sorpresa. Location spartana ma cibo (primi e antipasti) veramente buoni. Porzioni piu' che abbondanti. Prezzo onesto per quello che viene offerto. Consigliatissimo!;;;2015-10-08 19:54:09.944+01
32;38;2016-11-12;4;Arrivare a Rimini e non andare alla Casina del Bosco e' un sacrilegio, la piadina e' ottima, che accontenta tutti quanti, sia gli amanti del dolce che gli amanti del salato. Consigliato vivamente!;Grazie per la recensione gentile utente!;4;2016-11-15 01:00:09.944+01
30;38;2016-05-19;5;Se vi trovate a Rimini dovete per forza fermarvi in questo luogo. Servizio veloce, un menu' variegato con ampia scelta. Opzioni per vegetariani e vegani e soprattutto la qualita' altissima delle materie prime.;Grazie per la recensione gentile utente!;5;2016-05-22 11:33:09.944+01
68;38;2015-06-07;4;Un locale all'aperto con qualche posto al chiuso super cool, varieta' infinita di piade e cassoni farciti con ingredienti ed accostamenti creativi di prima scelta, ottimi dolci ed ottime insalate. Prezzi non bassissimi, ma giustificati dalla qualita' molto alta.;Grazie per la recensione gentile utente!;3;2015-06-09 16:28:09.944+01
37;39;2015-12-02;3;Sono stata a cena con colleghi di lavoro. Complessivamente la location e' carina, curata anche se in una struttura di per se non caratteristica. Il cibo veramente ottimo, pesce fresco, ottimo i crudi e ben cucinato il resto. Ottimo rapporto qualita' prezzo, soprattutto per i vini. Personale cordiale e attento. Senza dubbio consigliabile senza remore.;Grazie per la recensione gentile utente!;1;2015-12-04 15:44:09.944+01
5;39;2016-05-23;5;Perfetto il servizio, perfetta la location, perfetta la cucina perfetto anche il vino della casa, primi e secondi assaggiati in 3 con porzioni perfette. Servizio eccellente cortese veloce discreto Non e' una trattoria ma un ristorante elegante con prezzi giusti! Consiglio vivamente!;Grazie per la recensione gentile utente!;1;2016-05-24 11:45:09.944+01
4;40;2014-10-08;3;Ambiente curato, personale cordiale e competente, pietanze ottime e di qualita'. Ottimo rapporto qualita' prezzo. Tale recensione e' il minimo che possiamo fare per esprimere la nostra soddisfazione.;;;2014-10-08 23:25:09.944+01
18;41;2015-07-19;5;Ottimo davvero. Volevamo assaggiare le specialita' del posto e in questo ristorante ne abbiamo avuto la possibilita'. Ottimi davvero sia l'antipasto misto i primi e logicamente il poker di baccala' che era divino. Ampia scelta di vini e personale della sala davvero cortese, sicuramente diventera' una tappa fissa.;;;2015-07-19 18:46:09.944+01
17;41;2016-03-04;4;Abbiamo pranzato un mezzogiorno, meglio prenotare perche' altrimenti e' facile non trovare posto, personale molto simpatico e professionale, ottimo pranzo e prezzo in linea con il livello del locale. Ottimo anche il vino. Un filo alti i prezzi.;Grazie per la recensione gentile utente!;4;2016-03-06 11:10:09.944+01
14;42;2015-02-19;5;Era da un secolo che non uscivo da un ristorante cosi soddisfatta. Cibo gustoso e soddisfacente, dalle fajitas di manzo alla panna cotta al mango fatta in casa. Complimenti allo staff gentilissimo. Unisce la qualita' e la cordialita' di una piccola realta' alla fama di grande ristorante, consigliatissimo!;Grazie per la recensione gentile utente!;5;2015-02-20 08:17:09.944+01
11;42;2016-01-26;4;Esperienza da ripetere: atmosfera divertente, un menu' variegato con piatti ben presentati... Non sempre in linea con lo stile messicano, ma e' una scelta comunque comprensibile. Personale davvero accogliente.;Grazie per la recensione gentile utente!;3;2016-01-28 19:32:09.944+01
10;43;2016-04-18;5;Domenica scorsa ero a cena con degli amici. Dopo una scorsa al menu' abbiamo deciso per la degustazione. Le pietanze, sia di carne che pesce, esprimono dei giochi di sapore tra il salato e il dolce. Eccezionale l'abinamento dei vini consigliati dal sommelier di sala! Consigliato!;;;2016-04-18 18:52:09.944+01
57;43;2015-09-03;5;Dopo una riunione fatta nell'hotel adiacente sono ritornato con colleghi in questo ristorante dopo piu' di un anno e' sempre una conferma di piatti di grande qualita' e bonta'. Ottimi i ravioli con porta della di cinghiale e il maialino croccante cotto a bassa temperatura. Prezzi adeguati alla qualita'.;;;2015-09-03 16:17:09.944+01
15;43;2014-05-29;4;Ho partecipato ad una cena per una cresima. L'ambiente e' gradevole e la degustazione dei piatti e' stata buona. Ottimo buffet all'inizio del servizio ed anche durante la cena i piatti sono stati molto graditi anche dal resto degli invitati. Da consigliare per occasioni simili.;Grazie per la recensione gentile utente!;4;2014-05-29 23:49:09.944+01
51;44;2016-03-15;4;Il sushi in questo ristorante e' davvero molto buono e ci sono veramente delle creazioni particolari (per esempio con tartufo o fragole oppure con astice) che sono un must! Prezzi medio-alti anche se sono soldi ben spesi per un sushi buono!!;Grazie per la recensione gentile utente!;5;2016-03-17 09:57:09.944+01
30;44;2015-06-18;5;Sia per una cena romantica, che per asporto, posso sempre contare su questo ristorante: personale ottimo, varieta' di piatti eccellenti, decisamente un'ottima scelta per quanto riguarda i vini... Il top!;;;2015-06-18 22:15:09.944+01
14;45;2016-02-18;4;Adoro questo piccolo e accogliente locale che non delude mai le mie aspettative! Pizza ottima e creativa, piatti di cucina sempre buoni e presentati con accuratezza, servizio cordiale e rapido... nel periodo estivo capita di dover attendere un po' ma ne vale la pena, i tavoli all'aperto godono della vista su uno degli angoli piu' belli della citta'!;;;2016-02-18 20:32:09.944+01
11;45;2015-06-23;3;Ristorante pizzeria in pieno centro. Ambiente giovane, con molti tavoli all'esterno. Servizio veloce ed attento. Piatti buoni e ben presentati. Prezzi giusti. Forse l'unica pecca e' che i tavoli sono leggermente troppo vicini l'uno all'altro, ma nel complesso e' un bel posto!;Grazie per la recensione gentile utente!;1;2015-06-26 17:22:09.944+01
31;45;2014-08-13;4;Pizza davvero ottima in una cornice incatevole...questo quanto vi aspetta in questo piccolo ristorante nel cuore di Vicenza. Pizza creativa con ingriedienti di qualita' ad un prezzo decisamente buono! Consigliatissimo!;;;2014-08-13 22:03:09.944+01
32;46;2015-07-19;4;Locale storico, impossibile non conoscerlo! Cucina buona, titolari cortesi e simpatici. Sono stata a cena con degli amici che sono stati colpiti molto positivamente dal tipico arredamento da trattoria. Buoni i primi piatti ed il dessert.;Grazie per la recensione gentile utente!;1;2015-07-22 15:15:09.944+01
34;46;2016-02-13;4;Sono stata a cena con amici in questo locale. L'arredamento e' da antica e tipica trattoria che da un fascino particolare all'ambiente. Il personale gentile, cortese e veloce. Ottime le lasagne al baccala' e buono anche il baccala' alla vicentina con la polenta. Buono anche il dessert... Assolutamente locale da provare!;Grazie per la recensione gentile utente!;5;2016-02-14 02:15:09.944+01
33;47;2014-04-19;3;Bella serata trascorsa con la mia famiglia. Siamo stati molto bene, coccolati e mangiato dell'ottimo sushi. Tutto nella media compreso l'attesa dei piatti. Consiglio assolutamente di provarli. Rapporto qualita' prezzo nella media.;Grazie per la recensione gentile utente!;1;2014-04-20 12:05:09.944+01
34;48;2015-02-03;4;Bella location, adatta anche ad eventi e matrimoni, immersa nel verde, le sale sono ben arredate in modo rustico, i piatti sono della tradizione veneta, ben presentati. il servizio e' buono e cordiale, a pranzo e' possibile avere un buffet di verdure nell' attesa dei piatti, buona lista dei vini con cantina.;Grazie per la recensione gentile utente!;4;2015-02-05 16:57:09.944+01
4;48;2016-01-14;4;Ci hanno consigliato questo ristorante sia i gestori dell' agriturismo nel quale abbiamo pernottato che un poliziotto incontrato la sera prima. Ottimo consiglio, davvero un bel posto... Buoni piatti, buoni vini... Ottima scelta sia per carne e pesce... Se siete in zona provatelo!;Grazie per la recensione gentile utente!;4;2016-01-16 22:08:09.944+01
18;49;2016-08-21;5;Sono un cliente affezionato, conosco la pizzeria da 18 anni ancora con il precedente gestore, pero' devo dire che ultimamente il locale ha fatto un salto di qualita', ingredienti ottimi e una buona scelta di birre. Consiglio vivamente questo posto a chi visita Vicenza e anche ai vicentini.;Grazie per la recensione gentile utente!;1;2016-08-22 10:12:09.944+01
34;49;2015-04-27;4;Ambiente abbastanza casalingo, anche perche' piuttosto lontano dal centro. Pizza buona, sostanziosa e molto condita come da tradizione partenopea. Da molta soddisfazione al palato ma riempie parecchio. Prezzi nella media.;Grazie per la recensione gentile utente!;4;2015-04-28 17:55:09.944+01
35;50;2016-01-25;3;Bel ristorante situato in pieno centro storico, non lontano da piazza dei Signori. Nel locale il rustico si fonde con l'elegante ed insieme conferiscono un'atmosfera particolare. Personale gentile e piatti tipici vicentini all'altezza della situazione. Indimenticabile il baccala' e ottimi i dolci, in un ottimo rapporto qualita' prezzo.;;;2016-01-25 23:07:09.944+01
38;50;2015-06-01;4;Bel locale , curato e tavoli non troppo vicini . Da provare gli antipasti con baccala' mantecato (i fiori di zucca ripieni e quello con polenta bianca), il baccala' alla vicentina e l'orata su vellutata di porri. Per finire un ottimo tiramisu'. Prezzi giustissimi.;;;2015-06-01 13:45:09.944+01
1;50;2014-10-28;5;Il locale e' molto carino e accogliente, con personale attento e discreto. Il cibo e' ottimo: piatti della tradizione vicentina rivisitati (ma non troppo) secondo una presentazione attuale. Porzioni non abbondanti, ma gusto davvero buono. Molto buono il rapporto qualita' prezzo. Consiglio.;Grazie per la recensione gentile utente!;5;2014-10-29 15:33:09.944+01
